Robyn’s Portfolio - BCB 520 - Midterm Portfolio Post
…
Code

#overview of DOE awards

DOEUofI <- read_xlsx("DOEawards.xlsx")

New names:
• `` -> `...27`

Code

print(DOEUofI)

# A tibble: 4,155 × 27
   `Award Number` Title          Institution City  State `Zip Code` PI    Status
   <chr>          <chr>          <chr>       <chr> <chr> <chr>      <chr> <chr> 
 1 DE-SC0024850   Data Fusion a… Subsurface… Hano… NH    03755-2510 Vers… Active
 2 DE-SC0024800   High Speed Di… SkuTek Ins… Roch… NY    14620-2442 Skul… Active
 3 DE-SC0024796   Molecular Het… University… Coll… MD    20742-5141 Ren,… Active
 4 DE-SC0024761   Accelerating … Photon Cou… Berk… NY    13736      Pirg… Active
 5 DE-SC0024315   Representatio… Regents of… Los … CA    90095-1406 Jian… Active
 6 DE-SC0023707   Nuclei and Ha… Iowa State… Ames  IA    50011-2207 Vary… Active
 7 DE-SC0023267   Building part… University… Memp… TN    38152-3370 Foti… Active
 8 DE-SC0023254   Large-scale o… University… Maya… PR    00681-9000 Ciri… Active
 9 DE-SC0020543   Continuous Ro… Hummingbir… Lacey WA    98516-1326 Salm… Active
10 DE-SC0018426   Electronic an… The Truste… New … NY    10027-7922 Baso… Active
# ℹ 4,145 more rows
# ℹ 19 more variables: `Action Type` <chr>, `Org Code` <chr>,
#   `SBIR/STTR` <chr>, `Program Office` <chr>, `Award Type` <chr>, PM <chr>,
#   `Start Date` <chr>, `End Date` <chr>, `SBIR Phase` <chr>,
#   `Most Recent Award Date` <chr>, `Amount Awarded to Date` <dbl>,
#   `Amount Awarded this FY` <dbl>, `Program Area` <chr>,
#   `Register Number` <chr>, UEI <chr>, DUNS <chr>, `Institution Type` <chr>, …
…
